^C:\USERS\JAN RIEDO\DESKTOP\CONSOLEAPPLICATION1\CONSOLEAPPLICATION1\X64\DEBUG\CONSOLEAPPLICATION1.OBJ|C:\USERS\JAN RIEDO\DESKTOP\CONSOLEAPPLICATION1\CONSOLEAPPLICATION1\X64\DEBUG\STDAFX.OBJ
/OUT:"C:\USERS\JAN RIEDO\DESKTOP\CONSOLEAPPLICATION1\X64\DEBUG\CONSOLEAPPLICATION1.EXE" /INCREMENTAL /NOLOGO /LIBPATH:"C:\PROGRAM FILES\OPENCV\BUILD\\X64\VC12\LIB" OPENCV_CALIB3D2413D.LIB OPENCV_CONTRIB2413D.LIB OPENCV_CORE2413D.LIB OPENCV_FEATURES2D2413D.LIB OPENCV_FLANN2413D.LIB OPENCV_GPU2413D.LIB OPENCV_HIGHGUI2413D.LIB OPENCV_IMGPROC2413D.LIB OPENCV_LEGACY2413D.LIB OPENCV_ML2413D.LIB OPENCV_NONFREE2413D.LIB OPENCV_OBJDETECT2413D.LIB OPENCV_OCL2413D.LIB OPENCV_PHOTO2413D.LIB OPENCV_STITCHING2413D.LIB OPENCV_SUPERRES2413D.LIB OPENCV_TS2413D.LIB OPENCV_VIDEO2413D.LIB OPENCV_VIDEOSTAB2413D.LIB /MANIFEST /MANIFESTUAC:"level='asInvoker' uiAccess='false'" /manifest:embed /DEBUG /PDB:"C:\USERS\JAN RIEDO\DESKTOP\CONSOLEAPPLICATION1\X64\DEBUG\CONSOLEAPPLICATION1.PDB" /SUBSYSTEM:CONSOLE /TLBID:1 /DYNAMICBASE /NXCOMPAT /IMPLIB:"C:\USERS\JAN RIEDO\DESKTOP\CONSOLEAPPLICATION1\X64\DEBUG\CONSOLEAPPLICATION1.LIB" /MACHINE:X64 X64\DEBUG\CONSOLEAPPLICATION1.OBJX64\DEBUG\STDAFX.OBJ
^C:\USERS\JAN RIEDO\ONEDRIVE\ASSISTENT\C++\WEBCAMSTREAM\CONSOLEAPPLICATION1\X64\DEBUG\CONSOLEAPPLICATION1.OBJ|C:\USERS\JAN RIEDO\ONEDRIVE\ASSISTENT\C++\WEBCAMSTREAM\CONSOLEAPPLICATION1\X64\DEBUG\STDAFX.OBJ
/OUT:"C:\USERS\JAN RIEDO\ONEDRIVE\ASSISTENT\C++\WEBCAMSTREAM\X64\DEBUG\CONSOLEAPPLICATION1.EXE" /INCREMENTAL /NOLOGO /LIBPATH:"C:\PROGRAM FILES\OPENCV\BUILD\\X64\VC12\LIB" OPENCV_CALIB3D2413D.LIB OPENCV_CONTRIB2413D.LIB OPENCV_CORE2413D.LIB OPENCV_FEATURES2D2413D.LIB OPENCV_FLANN2413D.LIB OPENCV_GPU2413D.LIB OPENCV_HIGHGUI2413D.LIB OPENCV_IMGPROC2413D.LIB OPENCV_LEGACY2413D.LIB OPENCV_ML2413D.LIB OPENCV_NONFREE2413D.LIB OPENCV_OBJDETECT2413D.LIB OPENCV_OCL2413D.LIB OPENCV_PHOTO2413D.LIB OPENCV_STITCHING2413D.LIB OPENCV_SUPERRES2413D.LIB OPENCV_TS2413D.LIB OPENCV_VIDEO2413D.LIB OPENCV_VIDEOSTAB2413D.LIB /MANIFEST /MANIFESTUAC:"level='asInvoker' uiAccess='false'" /manifest:embed /DEBUG /PDB:"C:\USERS\JAN RIEDO\ONEDRIVE\ASSISTENT\C++\WEBCAMSTREAM\X64\DEBUG\CONSOLEAPPLICATION1.PDB" /SUBSYSTEM:CONSOLE /TLBID:1 /DYNAMICBASE /NXCOMPAT /IMPLIB:"C:\USERS\JAN RIEDO\ONEDRIVE\ASSISTENT\C++\WEBCAMSTREAM\X64\DEBUG\CONSOLEAPPLICATION1.LIB" /MACHINE:X64 X64\DEBUG\CONSOLEAPPLICATION1.OBJX64\DEBUG\STDAFX.OBJ
